"WorldVertexTransition"
{
	"$basetexture2" "nature/gravelfloor004a"
	"$basetexture" "nature/rockwall001a"
	"%tooltexture" "nature/blendrockgravel001a_tooltexture"
	"%keywords" "wasteland"
	"$bumpmap2" "Nature/gravelfloor004a_normal"
	"$bumpmap" "nature/rockwall001a_normal"
	"$surfaceprop" "rock"
}
