"LightmappedGeneric"
{
	"$baseTexture" "nature\Cliff_path01a"
	"$surfaceprop" "concrete"
	">=DX90"
	{
	"$detail" "detail\rock_detail_01"
	"$detailscale" "8"
	"$detailblendfactor" 1
	"$detailblendmode" 0
	}
}


