"LightmappedGeneric"
{
	"$basetexture" "Nature/mudfloor004b"
	"$surfaceprop" "dirt"
	"%keywords" "wasteland"
	"$bumpmap" "Nature/mudfloor004b_normal"
	"$normalmapalphaenvmapmask" 1
	"$envmapcontrast" 1
	"$envmapsaturation" 1
	"$envmaptint" "[ .55 .55 .55]"
	"hdr?$envmaptint" "[ .1 .1 .1]"
	"$envmap" "env_cubemap"

	"LightmappedGeneric_DX8"
	{
		"$nodiffusebumplighting" 1
	}
}
