// envmaptint_fix
"VertexLitGeneric"
{
	"$basetexture" "models/props_combine/combine_gate_vehicle01a"
	"$basealphaenvmapmask" 1
	"$surfaceprop" "metal"
	"$envmap" "env_cubemap"
	"$envmapcontrast" 1
	"$envmapsaturation" 1
	"$envmaptint" "[ .76 .9 1 ]"
	"hdr?$envmaptint" "[.25 .35 .4]"

	"VertexLitGeneric_DX8"
	{
		"$envmaptint" "[ .25 .35 .4 ]"
	}
}



