"VertexLitGeneric"
{
	"$basetexture" "Models/props_combine/combine_tower01b"
	"$surfaceprop" "metal"
	"$nocull" 1
	"$envmap" "env_cubemap"
	"$envmaptint" "[.8 .8 .8]"
	"hdr?$envmaptint" "[.25 .25 .25]"
}