"VertexLitGeneric"
{

	"$basetexture" "lostcoast\models\props_wasteland\Coastrock001"
	"$surfaceprop" "rock"
	"$bumpmap" "lostcoast\models\props_wasteland\coastrock001_normal"
	"$normalmapalphaenvmapmask" 1
	"$envmapcontrast" 1
//	"$envmapsaturation" 1
	"$envmaptint" "[ .5 .5 .5]"
	"$envmap" "env_cubemap"
	"hdr?$envmaptint" "[.3 .3 .3]"
}

