// envmaptint_fix
"LightmappedGeneric"
{
	"$basetexture" "Plaster/plasterwall030e"
	"$surfaceprop"  "plaster"
	"LightmappedGeneric_DX9"
	{
		"$detail" "detail\plaster_detail_01"
		"$detailscale" "6.783"
		"$detailblendfactor" .8
		"$detailblendmode" "0"
	}

	"%keywords" "c17downtown"
	"$bumpmap" "plaster/plasterwall030e_normal"
	"$envmap" "env_cubemap"
	"$normalmapalphaenvmapmask" 1
	"$envmapcontrast" 1
	"$envmapsaturation" 1
	"$envmaptint" "[ .56 .56 .56 ]"
}
