"LightmappedGeneric"
{
	// Original shader: BaseTimesLightmapSelfIllum
	"$basetexture" "Plaster/plasterwall012a"
	"$selfillum" 1
	"$surfaceprop"  "plaster"
	"LightmappedGeneric_DX9"
	{
		"$detail" "detail\plaster_detail_01"
		"$detailscale" "6.783"
		"$detailblendfactor" .8
		"$detailblendmode" "0"
	}
}
