// envmaptint_fix
"LightmappedGeneric"
{
	"$basetexture" "Plaster/plasterwall044c"
	"$surfaceprop"  "plaster"
	"LightmappedGeneric_DX9"
	{
		"$detail" "detail\plaster_detail_01"
		"$detailscale" "6.783"
		"$detailblendfactor" .8
		"$detailblendmode" "0"
	}
	"$bumpmap" "plaster/plasterwall044c_normal"
	"%keywords" "c17downtown"
	"$envmap" "env_cubemap"
	"$normalmapalphaenvmapmask" 1
	"$envmapcontrast" 1
	"$envmapsaturation" .2
	"$envmaptint" "[ .5 .5 .5 ]"
}
