"LightmappedGeneric"
{
	"$basetexture" "Concrete/concretewall073c"
	"$surfaceprop" "concrete"
	
	"LightmappedGeneric_DX9"
	{
		"$detail" "detail\noise_detail_01"
		"$detailscale" "7.345"
		"$detailblendfactor" .6
		"$detailblendmode" 0
	}
	"%keywords" "airexchange"
}
