"LightmappedGeneric"
{
	"$bumpmap" "concrete/concretefloor012a_normal"
	"$basetexture" "Concrete/concretefloor012a"
	"$surfaceprop" "concrete"
	
	"LightmappedGeneric_DX9"
	{
    "$detail" "detail\noise_detail_01"
	"$detailscale" "7.345"
	"$detailblendfactor" .6
	"$detailblendmode" 0
	}
	"%keywords" "skyscraper"
}
