// envmaptint_fix
"LightmappedGeneric"
{
	"$basetexture" "concrete/concretefloor037b"
	"$surfaceprop" "concrete"
	"%keywords" "c17downtown"
	"$bumpmap" "concrete\concretefloor037b_normal"

	"LightmappedGeneric_DX9"
	{
	    "$detail" "detail\noise_detail_01"
		"$detailscale" "7.345"
		"$detailblendfactor" .6
		"$detailblendmode" 0
		"$normalmapalphaenvmapmask" 1
		"$envmap" "env_cubemap"
		"$envmapsaturation" 1
		"$envmapcontrast" 1
		"$envmaptint" "[ .56 .56 .56 ]"
	}
}
