// envmaptint_fix
"LightmappedGeneric"
{
	"$basetexture" "Concrete/concretefloor011a"
	"$surfaceprop" "concrete"
	
	"%keywords" "c17downtown"

	"LightmappedGeneric_DX9"
	{
	    "$detail" "detail\noise_detail_01"
		"$detailscale" "7.345"
		"$detailblendfactor" .6
		"$detailblendmode" 0
		"$bumpmap" "concrete/concretefloor011a_normal"
		"$envmap" "env_cubemap"
		"$normalmapalphaenvmapmask" 1
		"$envmapcontrast" 1
		"$envmapsaturation" 1
		"$envmaptint" "[ .06 .06 .06 ]"
	}
}
