"VertexLitGeneric"
{
	"$baseTexture" 	"models/weapons/ar15/ar15_receiver"
	"$bumpmap" 	"models/weapons/ar15/ar15_receiver_normal"
	"$envmap"	"env_cubemap"

	"$normalmapalphaenvmapmask" 	"1"
	
	"$envmaptint"		"[0.03 0.03 0.03]"
	
	"$phong" 		"1"
	"$phongboost"		"1"
	"$phongexponent" 	"30"
	"$phongtint"		"[0.7 0.8 1]"
	"$phongfresnelranges"	"[1 3 6]"
	"$phongalbedotint" 	"1"
	"$halflambert" 		"1"
}
	
//Soldier11 created these shaders. You may not re-use them without his permission!
	