"LightmappedGeneric"
{
	"$basetexture" "Brick/brickwall048f"
	"$surfaceprop" "brick"
	"LightmappedGeneric_DX9"
	{
		"$detail" "detail\noise_detail_01"
		"$detailscale" "7.740"
		"$detailblendfactor" .8
		"$detailblendmode" 0
	}
	"%keywords" "wasteland"
	"$bumpmap" "Brick/brickwall048f_normal"
	"$parallaxmap" "Brick/brickwall048f_height"
	"$parallaxmapscale" ".005"
}
