"LightmappedGeneric"
{
	"$basetexture" "Brick/brickwall045d"
	"$surfaceprop" "brick"
	"LightmappedGeneric_DX9"
	{
		"$detail" "detail\noise_detail_01"
		"$detailscale" "7.740"
		"$detailblendfactor" .8
		"$detailblendmode" 0
	}
}
