"UnlitGeneric"
{
	// Original shader: BaseTimesVertexColorAlphaBlend
	"$translucent" 1
	"$basetexture" "particle/particle_sphere"
	"$vertexcolor" 1
	"ldr?$gammaColorRead" "1"
	"ldr?$linearWrite" "1"
}
