// envmaptint_fix
"LightmappedGeneric"
{
	"$basetexture" "Metal/metalwall063a"
	"$surfaceprop" "metal"
	"%keywords" "combine"
	"$bumpmap" "Metal/metalwall063a_normal"
	"$nodiffusebumplighting" 1
	"$envmaptint" "[ .56 .56 .75 ]"
	"hdr?$envmaptint" "[ .09 .1 .12]"
	"$envmap" "env_cubemap"
	"$normalmapalphaenvmapmask" 1
	"$envmapcontrast" 1
	"$envmapsaturation" 1
	"$reflectivity" "[.23 .31 .31 ]" //this is a artificial radiosity boost
}
