"LightmappedGeneric"
{
	"$basetexture" "Metal/metalwall014a"
	"$surfaceprop"  "metal"
	"LightmappedGeneric_DX9"
	{
		"$detail" "detail\metal_detail_01"
		"$detailscale" "4.283"
		"$detailblendfactor" .8
		"$detailblendmode" "0"
	}

	"%keywords" "c17industrial,wasteland"
	"$bumpmap" "Metal/metalwall001a_normal"
}
