"LightmappedGeneric"
{
	// Original shader: CubicEnvMapBlendMaskedBaseTimesLightmap
	"$basealphaenvmapmask" 1
	"$basetexture" "Metal/metalwall061h"
	"$envmap" "env_cubemap"
	"$surfaceprop"  "metal"
	"LightmappedGeneric_DX9"
	{
		"$detail" "detail\metal_detail_01"
		"$detailscale" "4.283"
		"$detailblendfactor" .8
		"$detailblendmode" "0"
	}

	"%keywords" "airexchange,combine"
}
