"LightmappedGeneric"
{
	
	"$basetexture" "Metal/metalfloor006a"
	"$bumpmap" "Metal/metalfloor006a_normal"
	"$surfaceprop"  "metal"
	"LightmappedGeneric_DX9"
	{
		"$detail" "detail\metal_detail_01"
		"$detailscale" "4.283"
		"$detailblendfactor" .65
		"$detailblendmode" "0"
	}

	"%keywords" "borealis,kraken"
}
