"sky"
{
	"$hdrcompressedTexture" "skybox/sky_ep01_04a_hdrft"
	"$nofog" "1"
	"$ignorez" "1"
	"$basetexture" "skybox/sky_ep01_04aft"
	"hdr?$basetexturetransform" "center 0 0 scale 1 2 rotate 0 translate 0 0"
}
