"LightMappedGeneric"
{
	"$basetexture"	"wood/woodwall_mine001a"
	"$surfaceprop"	"Wood"
	">=DX90"
	{
	"$detail" "detail\noise_detail_01"
	"$detailscale" "7.54"
	"$detailblendfactor" .5
	"$detailblendmode" 0
	}
}