// Hand grenade

WeaponData
{
	// Weapon data is loaded by both the Game and Client DLLs.
	"printname"		"#HL2_Grenade"
	"viewmodel"		"models/v_grenade.mdl"
	"playermodel"		"models/w_grenade.mdl"
	"anim_prefix"		"crowbar"
	"bucket"			"grenades"
	"bucket_position"	"20"

	"clip_size"		"-1"
	"default_clip"		"5"
	"primary_ammo"		"Grenade"
	"secondary_ammo"	"None"

	"weight"		"5"
	"item_flags"		"24"	// ITEM_FLAG_LIMITINWORLD | ITEM_FLAG_EXHAUSTIBLE
	"addfov"				"36" 

	// Sounds for the weapon. There is a max of 16 sounds per category (i.e. max 16 "single_shot" sounds)
	SoundData
	{
	}

	// Weapon Sprite data is loaded by the Client DLL.
	TextureData
	{
		"weapon"
		{
			"file"		"sprites/640hud3"
			"x"			"0"
			"y"			"0"
			"width"		"170"
			"height"	"45"
		}
		"weapon_s"
		{	
			"file"		"sprites/640hud6"
			"x"			"0"
			"y"			"0"
			"width"		"170"
			"height"	"45"
		}
		"ammo"
		{
			"file"		"sprites/640hud7"
			"x"			"48"
			"y"			"96"
			"width"		"24"
			"height"	"24"
		}
		"crosshair"
		{
				"font"		"Crosshairs"
				"character"	"Q"
		}
		"autoaim"
		{
			"file"		"sprites/crosshairs"
			"x"			"0"
			"y"			"48"
			"width"		"24"
			"height"	"24"
		}
	}
}