"LightmappedGeneric"
{
	"$basetexture" "Storefront_Template/Storefront_Template001a"
	"$surfaceprop" "concrete"
	"$bumpmap" "Storefront_Template/Storefront_Template001a_normal"
	"$envmap" "env_cubemap"
	"$normalmapalphaenvmapmask" 1
	"$envmapcontrast" 1
	"$envmapsaturation" 1
	"$envmaptint" "[ .4 .4 .4 ]"
	"LightmappedGeneric_DX9"
	{
		"$detail" "detail\metal_detail_01"
		"$detailscale" "7.283"
		"$detailblendfactor" .65
		"$detailblendmode" "0"
	}
}
