"VertexLitGeneric"
{
	// Original shader: BaseTextureAlphaBlend
	"$alphatest" 1
	"$basetexture" "models/props_foliage/tree_deciduous_01a_lod-leaves"
	"$model" 1
	"$nocull" 1
	"$FlashlightNoLambert" "1"
}

