"VertexLitGeneric"
{
	"$baseTexture" "Models/Zombie_Poison/PoisonZombie_sheet"
	"$bumpmap" "Models/Zombie_Poison/PoisonZombie_sheet_normal"
	"$model" "1"
	"$phong" "1"
	"$phongboost" "6"
//	"$halflambert" "1"
	"$phongexponenttexture" "Models/zombie_poison/poisonZombie_phong"			
	"$phongfresnelranges"	"[0 .5  1]"

	"<DX90_20b"
	{
		"$envmap" "env_cubemap"
		"$bumpmap" "Models/Zombie_Poison/PoisonZombie_sheet_normal_old"
		"$normalmapalphaenvmapmask" 1
		"$envmapcontrast" 1
	}
}
