
"VertexLitGeneric"
{
	// Original shader: VertexLitTexture
	"$basetexture" "Models/props_vehicles/tanker001a_01"
	"$surfaceprop" "solidmetal"
	"$envmap" "env_cubemap"
	"$basealphaenvmapmask" 1
	"hdr?$envmaptint" "[.25 .25 .25]"
}
