"UnlitGeneric"
{
	// Original shader: AdditiveTextureAndVertexColor
	"$basetexture" "sprites/ar2_muzzle3"
	"$additive" 1
	"$vertexcolor" 1
	"$ignorez" 1
	"ldr?$gammaColorRead" "1"
	"ldr?$linearWrite" "1"
}
