
"VertexLitGeneric"
{
	// Original shader: VertexLitTexture
	"$basetexture" "Models/props_junk/Bicycle01a"
	"$envmap" "env_cubemap"
	"$basealphaenvmapmask" 1
	"$surfaceprop" "metal"
  	"hdr?$envmaptint" "[.33 .33 .33]"
}

