
"VertexLitGeneric"
{
	// Original shader: VertexLitTexture
	"$basetexture" "Models/props_junk/GlassBottle01b"
	"$envmap" "env_cubemap"
	"$basealphaenvmapmask" 1
	"$surfaceprop" "glass"
	"hdr?$envmaptint" "[ .09 .1 .12]"
}



