"UnlitGeneric"
{
	// Original shader: DecalSelfIllumVertexAlphaBlend
	"$translucent" 1
	"$vertexcolor" 1
	"$vertexalpha" 1
	"$decal" 1
	"$basetexture" "decals/plasmaglowalpha"
	"$decalscale" 4.00
	"$decalfadeduration" 2.00
	"$decalfadetime" 0.00
	"$color" "{137 121 0}"
	"ldr?$gammaColorRead" "1"
	"ldr?$linearWrite" "1"
}
 
