"UnlitGeneric"
{
	"$basetexture" "effects/combinemuzzle1"
	"$additive" "1"
	"$vertexalpha" "1"
	"$vertexcolor" 1
	"$translucent" "1"
	"$nocull" "1"
	"ldr?$gammaColorRead" "1"
	"ldr?$linearWrite" "1"
}
