"UnlitGeneric"
{
	"$basetexture"	"Effects/fake_fog02"
	"$translucent"	1
	"$nodecal" 1 
	"$gammaColorRead" "1"
	"$linearWrite" "1"
	"srgb?$hdrcolorscale" "0.7"

	"UnlitGeneric_hdr_dx9"
	{
		// put HDR override stuff here
		"$basetexture"	"Effects/fake_fog02_hdr"
	}
}