"UnlitGeneric"
{
	// Original shader: BaseTimesVertexColorAlphaTest
	"$basetexture" "effects/fleck_glass1"
	"$translucent" 1
	"$vertexcolor" 1
	"$vertexalpha" 1
	"$nocull" 1
	"ldr?$gammaColorRead" "1"
	"ldr?$linearWrite" "1"
}
