"UnlitGeneric"
{
	"$basetexture" "effects/muzzleflash2"
	"$additive" "1"
	"$vertexcolor" 1
	"$vertexalpha" "1"
	"$translucent" "1"
	"$ignorez" "1"
	"ldr?$gammaColorRead" "1"
	"ldr?$linearWrite" "1"
}
