"VertexLitGeneric"
{
	"$basetexture" "Models/props_trainstation/train001"
	"$surfaceprop" "metal"
 	"$envmaptint" "[ .2 .2 .2]"
	"$envmap" "env_cubemap"
	"$basealphaenvmapmask" 1

	"VertexLitGeneric_DX9"
	{
    "$detail" "detail\metal_detail_01"
	"$detailscale" "14.345"
	"$detailblendfactor" .6
	"$detailblendmode" 0
	}
}
