// envmaptint_fix
"LightmappedGeneric"
{
	"$basetexture" "Stone/stonewall022b"
	"$surfaceprop" "concrete"
	"$bumpmap" "stone/stonewall022b_normal"
	"%keywords" "c17downtown"
	"$envmap" "env_cubemap"
	"$normalmapalphaenvmapmask" 1
	"$envmapcontrast" 1
	"$envmapsaturation" 1
	"$envmaptint" "[ .75 .75 .75 ]"

	"LightmappedGeneric_DX9"
	{
	"$detail" "detail\noise_detail_01"
	"$detailscale" "7.345"
	"$detailblendfactor" .8
	"$detailblendmode" 0
	}
}
