"vertexlitGeneric"
{
	"$basetexture" "nature/rockwall010e"
	"$model" 1
	"$surfaceprop" "boulder"

	"VertexLitGeneric_DX9"
	{
	"$detail" "detail\rock_detail_01"
	"$detailscale" "8.0"
	"$detailblendfactor" .7
	"$detailblendmode" 0
	}
}
