"vertexlitGeneric"
{
	"$basetexture" "models/props_wasteland/rockcliff02a"
	"$surfaceprop" "concrete"
//	"$bumpmap" "Nature/cliffface001a_normal"
//	"$parallaxmap" "Nature/cliffface001a_height"
//	"$parallaxmapscale" ".1"
	"$model" 1

	">=DX90"
	{
	"$detail" "detail\rock_detail_01"
	"$detailscale" "9"
	"$detailblendfactor" 1
	"$detailblendmode" 0
	}
}

